[
  {
    "name": "11 Test",
    "tradeLicenseNo": "777777777",
    "createdById": 5,
    "owner": {
      "firstName": "Saaeed",
      "lastName": "Mahmoud",
      "phoneNumber": "44444",
      "email": "saaeed@inlogic.ae"
    },
    "entityBranches": [
      {
        "name": "5555555",
        "entityBranchAddress": [
          {
            "address": {
              "id": 4,
              "title": "Test location",
              "countryId": "5",
              "cityId": "9",
              "areaId": "1",
              "street": "Muraqabat street",
              "buildingNo": "1212",
              "makaniNumber": "4343",
              "long": "12.12323423",
              "lat": "54.34324234"
            }
          }
        ],
        "contactEntityBranches": [
          {
            "contact": {
              "firstName": "contact",
              "lastName": "last",
              "phoneNumber": "12312312",
              "email": "contact@inlogic.ae"
            }
          }
        ],
        "companyScopeOfWorks": [
          {
            "scopeOfWorkId": 1
          }
        ]
      }
    ]
  },
  {
    "username": "Abbas",
    "password": "P@ssw0rd",
    "email": "abbas@inlogic.ae",
    "PhoneNumber": "0558102893",
    "GenderId": "37",
    "DateOfBirth": "12/10/1990"
  },

  {
    "title": "Inscpection WorkFlow",
    "language": 1,
    "tasks": [
      {
        "title": "Application Review",
        "createdById": 5,
        "taskActions": [
          {
            "action": "Approve",
            "nextTask": {
              "title": "Application Inspection",
              "createdById": 5,
              "taskActions": [
                {
                  "action": "Approve",
                  "nextTask": {
                    "title": "Application is Pending for Final Approval",
                    "createdBy": 5,
                    "taskActions": [
                      {
                        "action": "Approve",
                        "nextTask": {
                          "title": "Application Approved",
                          "createdById": 5
                        }
                      },
                      {
                        "action": "Reject",
                        "nextTask": {
                          "title": "Application Rejected",
                          "createdById": 5
                        }
                      }
                    ]
                  }
                },
                {
                  "action": "Send Back for Update",
                  "nextTask": {
                    "title": "Application is Pending for Update",
                    "createdBy": 5,
                    "taskActions": [
                      {
                        "action": "Update Application",
                        "nextTask": {
                          "title": "Application Updated",
                          "createdById": 5
                        }
                      },
                      {
                        "action": "Cancel Application",
                        "nextTask": {
                          "title": "Application Canceled",
                          "createdById": 5
                        }
                      }
                    ]
                  }
                },
                {
                  "action": "Reject",
                  "nextTask": {
                    "title": "Application Rejected",
                    "createdById": 5
                  }
                }
              ]
            }
          },
          {
            "action": "Reject",
            "nextTask": {
              "title": "Application Rejected",
              "createdById": 1
            }
          }
        ]
      }
    ]
  },
  {
    "title": "Inspection WorkFlow",
    "language": 1,
    "tasks": [
      {
        "title": "Task",
        "createdById": 5,
        "taskActions": [
          {
            "action":"Approve"

          },
          {
            "action":"Reject"
          }
        ]
      }
    ]
  }
]
